{
    "brands" : ["bmw", "fiat", "gm", "ford", "toyota"],
    "models" : [
        {"id": 1, "models": ["BMW1 Series", "BMW2 Series", "BMW3 Series"]},
        {"id": 2, "models": ["Punto", "Palio", "Marea"]},
        {"id": 3, "models": ["Corsa", "Camaro", "Astra", "Silverado"]},
        {"id": 4, "models": ["Fiesta", "F1000", "Mustang GT"]},
        {"id": 5, "models": ["Corolla", "Etios", "Prius"]}
    ],
    "years": [
        {"id": 1, "years": [2001,2002,2003,2004,2005]},
        {"id": 2, "years": [1991,1992,1993,1994,1995]},
        {"id": 3, "years": [2011,2012,2013]},
        {"id": 4, "years": [1980,1981,1982,1983,1984,1985,1986]},
        {"id": 5, "years": [2001,2002]}
    ]
}